{
  "image": "https://cdn.shopify.com/s/files/1/1231/6122/products/12010_NF_Balloon_Festival_Canberra_5b8d7e26-6d94-4447-9e17-6c3e0d0fd036.jpg",
  "title": "Canberra 2018",
  "subTitle": "5th to 7th December, Hotel Realm",
  "logo": "/images/logo-yellow.png"
}
